<?xml version="1.0" encoding="UTF-8" standalone="no"?>
<!-- Created with Inkscape (http://www.inkscape.org/) -->

<svg
   xmlns:dc="http://purl.org/dc/elements/1.1/"
   xmlns:cc="http://creativecommons.org/ns#"
   xmlns:rdf="http://www.w3.org/1999/02/22-rdf-syntax-ns#"
   xmlns:svg="http://www.w3.org/2000/svg"
   xmlns="http://www.w3.org/2000/svg"
   xmlns:sodipodi="http://sodipodi.sourceforge.net/DTD/sodipodi-0.dtd"
   xmlns:inkscape="http://www.inkscape.org/namespaces/inkscape"
   width="256pt"
   height="256pt"
   viewBox="0 0 320.00001 320"
   id="svg2"
   version="1.1"
   inkscape:version="0.91 r"
   sodipodi:docname="data_icon.svg">
  <defs
     id="defs4">
    <marker
       inkscape:stockid="Arrow1Lend"
       orient="auto"
       refY="0.0"
       refX="0.0"
       id="Arrow1Lend"
       style="overflow:visible;"
       inkscape:isstock="true">
      <path
         id="path4156"
         d="M 0.0,0.0 L 5.0,-5.0 L -12.5,0.0 L 5.0,5.0 L 0.0,0.0 z "
         style="fill-rule:evenodd;stroke:#808080;stroke-width:1pt;stroke-opacity:1;fill:#808080;fill-opacity:1"
         transform="scale(0.8) rotate(180) translate(12.5,0)" />
    </marker>
    <marker
       inkscape:stockid="TriangleOutM"
       orient="auto"
       refY="0.0"
       refX="0.0"
       id="marker4651"
       style="overflow:visible"
       inkscape:isstock="true">
      <path
         id="path4653"
         d="M 5.77,0.0 L -2.88,5.0 L -2.88,-5.0 L 5.77,0.0 z "
         style="fill-rule:evenodd;stroke:#808080;stroke-width:1pt;stroke-opacity:1;fill:#808080;fill-opacity:1"
         transform="scale(0.4)" />
    </marker>
    <marker
       inkscape:stockid="TriangleOutM"
       orient="auto"
       refY="0.0"
       refX="0.0"
       id="marker4587"
       style="overflow:visible"
       inkscape:isstock="true">
      <path
         id="path4589"
         d="M 5.77,0.0 L -2.88,5.0 L -2.88,-5.0 L 5.77,0.0 z "
         style="fill-rule:evenodd;stroke:#808080;stroke-width:1pt;stroke-opacity:1;fill:#808080;fill-opacity:1"
         transform="scale(0.4)" />
    </marker>
    <marker
       inkscape:stockid="Arrow1Send"
       orient="auto"
       refY="0.0"
       refX="0.0"
       id="marker4529"
       style="overflow:visible;"
       inkscape:isstock="true">
      <path
         id="path4531"
         d="M 0.0,0.0 L 5.0,-5.0 L -12.5,0.0 L 5.0,5.0 L 0.0,0.0 z "
         style="fill-rule:evenodd;stroke:#808080;stroke-width:1pt;stroke-opacity:1;fill:#808080;fill-opacity:1"
         transform="scale(0.2) rotate(180) translate(6,0)" />
    </marker>
    <marker
       inkscape:stockid="Arrow1Send"
       orient="auto"
       refY="0.0"
       refX="0.0"
       id="Arrow1Send"
       style="overflow:visible;"
       inkscape:isstock="true">
      <path
         id="path4168"
         d="M 0.0,0.0 L 5.0,-5.0 L -12.5,0.0 L 5.0,5.0 L 0.0,0.0 z "
         style="fill-rule:evenodd;stroke:#808080;stroke-width:1pt;stroke-opacity:1;fill:#808080;fill-opacity:1"
         transform="scale(0.2) rotate(180) translate(6,0)" />
    </marker>
    <marker
       inkscape:stockid="TriangleOutM"
       orient="auto"
       refY="0.0"
       refX="0.0"
       id="marker4469"
       style="overflow:visible"
       inkscape:isstock="true">
      <path
         id="path4471"
         d="M 5.77,0.0 L -2.88,5.0 L -2.88,-5.0 L 5.77,0.0 z "
         style="fill-rule:evenodd;stroke:#808080;stroke-width:1pt;stroke-opacity:1;fill:#808080;fill-opacity:1"
         transform="scale(0.4)" />
    </marker>
    <marker
       inkscape:stockid="TriangleOutM"
       orient="auto"
       refY="0.0"
       refX="0.0"
       id="TriangleOutM"
       style="overflow:visible"
       inkscape:isstock="true">
      <path
         id="path4298"
         d="M 5.77,0.0 L -2.88,5.0 L -2.88,-5.0 L 5.77,0.0 z "
         style="fill-rule:evenodd;stroke:#808080;stroke-width:1pt;stroke-opacity:1;fill:#808080;fill-opacity:1"
         transform="scale(0.4)" />
    </marker>
  </defs>
  <sodipodi:namedview
     id="base"
     pagecolor="#ffffff"
     bordercolor="#666666"
     borderopacity="1.0"
     inkscape:pageopacity="0.0"
     inkscape:pageshadow="2"
     inkscape:zoom="2.159375"
     inkscape:cx="90.767004"
     inkscape:cy="151.61634"
     inkscape:document-units="px"
     inkscape:current-layer="layer1"
     showgrid="false"
     units="pt"
     inkscape:window-width="1920"
     inkscape:window-height="1173"
     inkscape:window-x="1600"
     inkscape:window-y="0"
     inkscape:window-maximized="1" />
  <metadata
     id="metadata7">
    <rdf:RDF>
      <cc:Work
         rdf:about="">
        <dc:format>image/svg+xml</dc:format>
        <dc:type
           rdf:resource="http://purl.org/dc/dcmitype/StillImage" />
        <dc:title />
      </cc:Work>
    </rdf:RDF>
  </metadata>
  <g
     inkscape:label="Layer 1"
     inkscape:groupmode="layer"
     id="layer1"
     transform="translate(0,-732.36222)">
    <rect
       style="opacity:1;fill:#ffffff;fill-opacity:1;stroke:#808080;stroke-width:9.8170414;stroke-miterlimit:4;stroke-dasharray:none;stroke-dashoffset:0;stroke-opacity:1"
       id="rect4136"
       width="310.18295"
       height="310.18295"
       x="4.9085207"
       y="737.27032"
       rx="29.504078" />
    <text
       xml:space="preserve"
       style="font-style:normal;font-variant:normal;font-weight:bold;font-stretch:normal;font-size:30px;line-height:125%;font-family:'Ubuntu Mono';-inkscape-font-specification:'Ubuntu Mono Bold';letter-spacing:0px;word-spacing:0px;fill:#808080;fill-opacity:1;stroke:none;stroke-width:1px;stroke-linecap:butt;stroke-linejoin:miter;stroke-opacity:1;"
       x="102.91462"
       y="807.49103"
       id="text4927"
       sodipodi:linespacing="125%"><tspan
         sodipodi:role="line"
         id="tspan4929"
         x="102.91462"
         y="807.49103">1</tspan><tspan
         sodipodi:role="line"
         x="102.91462"
         y="844.99103"
         id="tspan4931">0</tspan><tspan
         sodipodi:role="line"
         x="102.91462"
         y="882.49103"
         id="tspan4933">0</tspan><tspan
         sodipodi:role="line"
         x="102.91462"
         y="919.99103"
         id="tspan4935">1</tspan><tspan
         sodipodi:role="line"
         x="102.91462"
         y="957.49103"
         id="tspan4937">1</tspan><tspan
         sodipodi:role="line"
         x="102.91462"
         y="994.99103"
         id="tspan4941">0</tspan><tspan
         sodipodi:role="line"
         x="102.91462"
         y="1032.491"
         id="tspan4959" /></text>
    <text
       sodipodi:linespacing="125%"
       id="text4971"
       y="845.00189"
       x="135.79449"
       style="font-style:normal;font-variant:normal;font-weight:bold;font-stretch:normal;font-size:30px;line-height:125%;font-family:'Ubuntu Mono';-inkscape-font-specification:'Ubuntu Mono Bold';letter-spacing:0px;word-spacing:0px;fill:#808080;fill-opacity:1;stroke:none;stroke-width:1px;stroke-linecap:butt;stroke-linejoin:miter;stroke-opacity:1;"
       xml:space="preserve"><tspan
         y="845.00189"
         x="135.79449"
         id="tspan4973"
         sodipodi:role="line">1</tspan><tspan
         id="tspan4975"
         y="882.50189"
         x="135.79449"
         sodipodi:role="line">0</tspan><tspan
         id="tspan4977"
         y="920.00189"
         x="135.79449"
         sodipodi:role="line">0</tspan><tspan
         id="tspan4979"
         y="957.50189"
         x="135.79449"
         sodipodi:role="line">1</tspan><tspan
         id="tspan4981"
         y="995.00189"
         x="135.79449"
         sodipodi:role="line">1</tspan><tspan
         id="tspan4983"
         y="1032.502"
         x="135.79449"
         sodipodi:role="line">0</tspan><tspan
         id="tspan4985"
         y="1070.002"
         x="135.79449"
         sodipodi:role="line" /></text>
    <text
       xml:space="preserve"
       style="font-style:normal;font-weight:normal;font-size:12.5px;line-height:125%;font-family:sans-serif;letter-spacing:0px;word-spacing:0px;fill:#000000;fill-opacity:1;stroke:none;stroke-width:1px;stroke-linecap:butt;stroke-linejoin:miter;stroke-opacity:1"
       x="158.84225"
       y="927.78912"
       id="text5009"
       sodipodi:linespacing="125%"><tspan
         sodipodi:role="line"
         id="tspan5011"
         x="158.84225"
         y="927.78912" /><tspan
         sodipodi:role="line"
         x="158.84225"
         y="943.41412"
         id="tspan5013" /></text>
    <text
       sodipodi:linespacing="125%"
       id="text5047"
       y="769.98022"
       x="170.06367"
       style="font-style:normal;font-variant:normal;font-weight:bold;font-stretch:normal;font-size:30px;line-height:125%;font-family:'Ubuntu Mono';-inkscape-font-specification:'Ubuntu Mono Bold';letter-spacing:0px;word-spacing:0px;fill:#808080;fill-opacity:1;stroke:none;stroke-width:1px;stroke-linecap:butt;stroke-linejoin:miter;stroke-opacity:1"
       xml:space="preserve"><tspan
         y="769.98022"
         x="170.06367"
         id="tspan5049"
         sodipodi:role="line">1</tspan><tspan
         id="tspan5051"
         y="807.48022"
         x="170.06367"
         sodipodi:role="line">0</tspan><tspan
         id="tspan5053"
         y="844.98022"
         x="170.06367"
         sodipodi:role="line">0</tspan><tspan
         id="tspan5055"
         y="882.48022"
         x="170.06367"
         sodipodi:role="line">1</tspan><tspan
         id="tspan5057"
         y="919.98022"
         x="170.06367"
         sodipodi:role="line">1</tspan><tspan
         id="tspan5059"
         y="957.48022"
         x="170.06367"
         sodipodi:role="line">0</tspan><tspan
         y="994.98022"
         x="170.06367"
         sodipodi:role="line"
         id="tspan4269">0</tspan><tspan
         id="tspan5061"
         y="1032.4802"
         x="170.06367"
         sodipodi:role="line" /></text>
    <text
       xml:space="preserve"
       style="font-style:normal;font-variant:normal;font-weight:bold;font-stretch:normal;font-size:30px;line-height:125%;font-family:'Ubuntu Mono';-inkscape-font-specification:'Ubuntu Mono Bold';letter-spacing:0px;word-spacing:0px;fill:#808080;fill-opacity:1;stroke:none;stroke-width:1px;stroke-linecap:butt;stroke-linejoin:miter;stroke-opacity:1;"
       x="200.62807"
       y="844.53882"
       id="text5063"
       sodipodi:linespacing="125%"><tspan
         sodipodi:role="line"
         id="tspan5065"
         x="200.62807"
         y="844.53882">1</tspan><tspan
         sodipodi:role="line"
         x="200.62807"
         y="882.03882"
         id="tspan5067">0</tspan><tspan
         sodipodi:role="line"
         x="200.62807"
         y="919.53882"
         id="tspan5069">0</tspan><tspan
         sodipodi:role="line"
         x="200.62807"
         y="957.03882"
         id="tspan5071">1</tspan><tspan
         sodipodi:role="line"
         x="200.62807"
         y="994.53882"
         id="tspan5073">1</tspan><tspan
         sodipodi:role="line"
         x="200.62807"
         y="1032.0388"
         id="tspan5075">0</tspan><tspan
         sodipodi:role="line"
         x="200.62807"
         y="1069.5388"
         id="tspan5077" /></text>
  </g>
</svg>
