
[
{
  "model": "lara_django_base.tag",
  
  "fields": {
    "tag": "interesting",
    "IRI": null
  }
},
{
  "model": "lara_django_base.tag",
  
  "fields": {
    "tag": "important",
    "IRI": null
  }
},
{
  "model": "lara_django_base.tag",
  
  "fields": {
    "tag": "new",
    "IRI": null
  }
},
{
  "model": "lara_django_base.tag",
  
  "fields": {
    "tag": "old",
    "IRI": null
  }
},
{
  "model": "lara_django_base.tag",
  
  "fields": {
    "tag": "funny",
    "IRI": null
  }
},
{
  "model": "lara_django_base.tag",
  
  "fields": {
    "tag": "boring",
    "IRI": null
  }
},
{
  "model": "lara_django_base.tag",
  
  "fields": {
    "tag": "useful",
    "IRI": null
  }
},
{
  "model": "lara_django_base.tag",
  
  "fields": {
    "tag": "useless",
    "IRI": null
  }
}
]
